CS: Tulsa County 00-19
…
#completeness

The pct_complete column shows that we have nearly 100 percent of expected cases for each year.

2.2 Check for NAs

Detail the NAs and blank items in your data and, if necessary and possible, fill them in.

nas_plaint<- CS %>%
  group_by(casenum) %>% 
  filter(all(is.na(iss_plaint) | iss_plaint == "")) 

nas_plaint

## # A tibble: 13,452 x 12
## # Groups:   casenum [8,278]
##    court casenum   casetype file_year file_date  defname    iss_no iss_desc     
##    <chr> <chr>     <chr>        <int> <date>     <chr>      <chr>  <chr>        
##  1 TULSA CS-2000- CS            2000 NA         LEWIS TRA 1      ""           
##  2 TULSA CS-2000- CS            2000 NA         THULIN, L 1      "BREACH OF A
##  3 TULSA CS-2000- CS            2000 NA         THULIN, M 1      "BREACH OF A
##  4 TULSA CS-2000- CS            2000 NA         VENTERS,  1      "BREACH OF A
##  5 TULSA CS-2000- CS            2000 NA         BRILEY CO 1      ""           
##  6 TULSA CS-2000- CS            2000 NA         GREGORY,  1      ""           
##  7 TULSA CS-2000- CS            2000 NA         ARE CO INC 1      "BREACH OF A
##  8 TULSA CS-2000- CS            2000 NA         OPPORTUNI 1      ""           
##  9 TULSA CS-2000- CS            2000 NA         ROBERT MI 1      ""           
## 10 TULSA CS-2000- CS            2000 NA         MILES, RO 1      ""           
## #  with 13,442 more rows, and 4 more variables: iss_plaint <chr>,
## #   disp_date <date>, disp <chr>, disp_type <chr>
…
Most of the missing plaintiff data occurs in years 2000-2002.

nas_desc <- CS %>%
  group_by(casenum) %>% 
  filter(all(is.na(iss_desc) | iss_desc == "")) 

nas_desc

## # A tibble: 1,051 x 12
## # Groups:   casenum [658]
##    court casenum    casetype file_year file_date  defname        iss_no iss_desc
##    <chr> <chr>      <chr>        <int> <date>     <chr>          <chr>  <chr>   
##  1 TULSA CS-2000-0 CS            2000 NA         LEWIS TRAVEL  1      ""      
##  2 TULSA CS-2000-0 CS            2000 NA         BRILEY CONSTR 1      ""      
##  3 TULSA CS-2000-0 CS            2000 NA         GREGORY, FRANK 1      ""      
##  4 TULSA CS-2000-0 CS            2000 NA         OPPORTUNITY T 1      ""      
##  5 TULSA CS-2000-0 CS            2000 NA         ROBERT MILES  1      ""      
##  6 TULSA CS-2000-0 CS            2000 NA         MILES, ROBERT 1      ""      
##  7 TULSA CS-2000-0 CS            2000 NA         *B, G A        1      ""      
##  8 TULSA CS-2000-0 CS            2000 NA         MCCROSSEN ENT 1      ""      
##  9 TULSA CS-2000-0 CS            2000 NA         INDIAN SPRING 1      ""      
## 10 TULSA CS-2000-0 CS            2000 NA         *B, G A        1      ""      
## #  with 1,041 more rows, and 4 more variables: iss_plaint <chr>,
## #   disp_date <date>, disp <chr>, disp_type <chr>
…
