CS: Tulsa County 05-19
…
#completeness

The pct_complete column shows that we have nearly 100 percent of expected cases for each year.

2.2 Check for NAs

Detail the NAs and blank items in your data and, if necessary and possible, fill them in.

nas_plaint<- CS %>%
  group_by(casenum) %>% 
  filter(all(is.na(iss_plaint) | iss_plaint == "")) 

nas_plaint

## # A tibble: 43 x 12
## # Groups:   casenum [32]
##    court casenum   casetype file_year file_date  defname     iss_no iss_desc    
##    <chr> <chr>     <chr>        <int> <date>     <chr>       <chr>  <chr>       
##  1 TULSA CS-2005- CS            2005 2005-01-25 TERRY, CHR 1      FRIENDLY SU
##  2 TULSA CS-2005- CS            2005 2005-02-11 TONYS CLOT 1      INDEBTEDNESS
##  3 TULSA CS-2005- CS            2005 2005-02-22 BURGESS, A 1      INDEBTEDNESS
##  4 TULSA CS-2005- CS            2005 2005-04-05 SWEARINGEN 1      BREACH OF A
##  5 TULSA CS-2005- CS            2005 2005-04-25 PLAINTIFF: 1      ABSTRACT OF
##  6 TULSA CS-2005- CS            2005 2005-04-26 BYLER, MIC 1      AUTO NEGLIG
##  7 TULSA CS-2005- CS            2005 2005-04-26 WILLIS, CH 1      AUTO NEGLIG
##  8 TULSA CS-2005- CS            2005 2005-07-18 <NA>        1      INDEBTEDNESS
##  9 TULSA CS-2006- CS            2006 NA         BARKER, RO 1      INDEBTEDNESS
## 10 TULSA CS-2007- CS            2007 2007-10-05 BRIGGS, KE 1      INDEBTEDNESS
## #  with 33 more rows, and 4 more variables: iss_plaint <chr>,
## #   disp_date <date>, disp <chr>, disp_type <chr>
…
