SC Oklahoma County 00-19
…
2.3 Check for outliers

If youre looking at numeric data, look at the highest and lowest values and explain your procedures to deal with them in this section.

3 Defining Measures

This is where youll likely spend the biggest chunk of time if youre using court data. There are a lot of ways things can go wrong, so we want to be able to trace back all of our steps and document all the decisions were making.

Because each analysis project is a bit different, the number and length of subsections in this section will vary a lot.

sc %>% 
  count(iss_desc) %>% 
  arrange(desc(n)) 

## # A tibble: 113 x 2
##    iss_desc                                    n
##    <chr>                                   <int>
##  1 "FORCIBLE ENTRY & DETAINER"            309479
##  2 "INDEBTEDNESS"                         197112
##  3 "INDEBTEDNESS >$1500."                  52262
##  4 "FORCIBLE ENTRY & DETAINER >$1500."     17222
##  5 ""                                       2370
##  6 "INDEBTEDNESS >$5000.00."                1906
##  7 "BREACH AGREEMENT - CONTRACT"            1420
##  8 "BREACH AGREEMENT - CONTRACT>$1500."      718
##  9 "AFFIDAVIT FOR REPLEVIN"                  451
## 10 "FORCIBLE ENTRY & DETAINER >$5000.00."    355
## #  with 103 more rows

debt <- sc %>% 
  filter(!str_detect(iss_desc, "FORC|PROMISSORY|REPLEVIN|BREACH"))

debt %>% 
  count(iss_desc) %>% 
  arrange(desc(n)) 

## # A tibble: 89 x 2
##    iss_desc                             n
##    <chr>                            <int>
##  1 "INDEBTEDNESS"                  197112
##  2 "INDEBTEDNESS >$1500."           52262
##  3 ""                                2370
##  4 "INDEBTEDNESS >$5000.00."         1906
##  5 "INTERPLEADER"                     215
##  6 "AUTOMOBILE NEGLIGENCE >$1500."    197
##  7 "DAMAGES >$1500.00"                129
##  8 "DAMAGES"                          116
##  9 "ASSAULT & BATTERY"                112
## 10 "INTERPLEADER >$1500.00"            86
## #  with 79 more rows
…
debt %>% 
  count(iss_plaint) %>% 
  arrange(desc(n))  

## # A tibble: 27,194 x 2
##    iss_plaint                                  n
##    <chr>                                   <int>
##  1 ""                                      36821
##  2 "INTEGRIS BAPTIST MEDICAL CENTER INC"    6189
##  3 "CAMELOT FINANCIAL SERVICES INC"         6068
##  4 "INTEGRIS SOUTHWEST MEDICAL CENTER INC"  2986
##  5 "CITY NATIONAL BANK"                     2838
##  6 "CUSTOMER CREDIT CORP"                   2565
##  7 "COURTESY LOANS"                         2553
##  8 "WEOKIE CREDIT UNION"                    2511
##  9 "CONVENIENT LOANS"                       2484
## 10 "EMERGENCY MEDICAL SERVICES AUTHORITY"   2472
## #  with 27,184 more rows
…
## # A tibble: 3 x 2
##   plaint_type      n
##   <chr>        <int>
## 1 OTHER       132205
## 2 UNKNOWN      85614
## 3 MEDICAL      33481

debt %>%
  filter(plaint_type == "UNKNOWN") %>% 
  count(iss_plaint) %>% 
  arrange(desc(n)) 

## # A tibble: 23,560 x 2
##    iss_plaint                                               n
##    <chr>                                                <int>
##  1 ""                                                   36821
##  2 "W.CRAIG BARTON"                                       996
##  3 "GARCIA INC"                                           425
##  4 "VALUED SERVICES OF OKLAHOMA LLC"                      238
##  5 "THE BOARD OF REGENTS OF THE UNIVERSITY OF OKLAHOMA"   222
##  6 "WILSON-BREIT, INC"                                    150
##  7 "ASKINS, J B"                                          138
##  8 "STARVIEW LLC"                                         111
##  9 "RICHARDSON-GADDIS, MONICA"                             99
## 10 "RENT-A-CENTER"                                         94
## #  with 23,550 more rows
…
## # A tibble: 3 x 2
##   plaint_type      n
##   <chr>        <int>
## 1 OTHER       132205
## 2 UNKNOWN      85614
## 3 MEDICAL      33481

debt %>%
  filter(plaint_type == "MEDICAL") %>% 
  count(iss_plaint) %>% 
  arrange(desc(n)) 

## # A tibble: 869 x 2
##    iss_plaint                                             n
##    <chr>                                              <int>
##  1 INTEGRIS BAPTIST MEDICAL CENTER INC                 6189
##  2 INTEGRIS SOUTHWEST MEDICAL CENTER INC               2986
##  3 EMERGENCY MEDICAL SERVICES AUTHORITY                2472
##  4 INTEGRIS SOUTH OKLAHOMA CITY HOSPITAL CORP          1302
##  5 INTEGRIS SOUTH OKLAHOMA CITY HOSPITAL CORP D/B/A I  1105
##  6 INTEGRIS BAPTIST MEDICAL CENTER, INC.               1061
##  7 INTEGRIS BAPTIST MEDICAL CENTER                     1055
##  8 OKLAHOMA SURGICARE                                   909
##  9 INTEGRIS SOUTHWEST MEDICAL CENTER                    814
## 10 ST ANTHONY HOSPITAL                                  769
## #  with 859 more rows
…
