Small Claims: Comanche County 00-19
…
The pct_complete column shows that we have nearly 100 percent of expected cases for each year.

2.2 Check for NAs

Detail the NAs and blank items in your data and, if necessary and possible, fill them in.

A large portion of the iss_plaint data for the early 2000s is missing.

nas_plaint<- sc %>%
  group_by(casenum) %>% 
  filter(all(is.na(iss_plaint) | iss_plaint == "")) 

nas_plaint

## # A tibble: 12,372 x 12
## # Groups:   casenum [12,182]
##    court  casenum   casetype file_year file_date  defname iss_no iss_desc       
##    <chr>  <chr>     <chr>        <int> <date>     <chr>   <chr>  <chr>          
##  1 COMAN SC-2000- SC            2000 NA         <NA>    1      INDEBTEDNESS   
##  2 COMAN SC-2000- SC            2000 NA         <NA>    1      INDEBTEDNESS   
##  3 COMAN SC-2000- SC            2000 NA         <NA>    1      INDEBTEDNESS   
##  4 COMAN SC-2000- SC            2000 NA         <NA>    1      FORCIBLE ENTRY
##  5 COMAN SC-2000- SC            2000 NA         <NA>    1      FORCIBLE ENTRY
##  6 COMAN SC-2000- SC            2000 NA         <NA>    1      INDEBTEDNESS   
##  7 COMAN SC-2000- SC            2000 NA         <NA>    1      INDEBTEDNESS   
##  8 COMAN SC-2000- SC            2000 NA         <NA>    1      INDEBTEDNESS   
##  9 COMAN SC-2000- SC            2000 NA         <NA>    1      INDEBTEDNESS   
## 10 COMAN SC-2000- SC            2000 NA         <NA>    1      INDEBTEDNESS >
## #  with 12,362 more rows, and 4 more variables: iss_plaint <chr>,
## #   disp_date <date>, disp <chr>, disp_type <chr>
…
Check for missing defendant names in new dataframe

nas_plaint <- sc2 %>%
  group_by(casenum) %>% 
  filter(all(is.na(iss_plaint) | iss_plaint == ""))

sc<- sc2

nas_plaint<- sc %>%
  group_by(casenum) %>% 
  filter(all(is.na(iss_plaint) | iss_plaint == "")) 

nas_plaint

## # A tibble: 12,182 x 13
## # Groups:   casenum [12,182]
##    court  casenum   casetype file_year file_date  defname iss_no iss_desc       
##    <chr>  <chr>     <chr>        <int> <date>     <chr>   <chr>  <chr>          
##  1 COMAN SC-2000- SC            2000 NA         <NA>    1      INDEBTEDNESS   
##  2 COMAN SC-2000- SC            2000 NA         <NA>    1      INDEBTEDNESS   
##  3 COMAN SC-2000- SC            2000 NA         <NA>    1      INDEBTEDNESS   
##  4 COMAN SC-2000- SC            2000 NA         <NA>    1      FORCIBLE ENTRY
##  5 COMAN SC-2000- SC            2000 NA         <NA>    1      FORCIBLE ENTRY
##  6 COMAN SC-2000- SC            2000 NA         <NA>    1      INDEBTEDNESS   
##  7 COMAN SC-2000- SC            2000 NA         <NA>    1      INDEBTEDNESS   
##  8 COMAN SC-2000- SC            2000 NA         <NA>    1      INDEBTEDNESS   
##  9 COMAN SC-2000- SC            2000 NA         <NA>    1      INDEBTEDNESS   
## 10 COMAN SC-2000- SC            2000 NA         <NA>    1      INDEBTEDNESS >
## #  with 12,172 more rows, and 5 more variables: iss_plaint <chr>,
## #   disp_date <date>, disp <chr>, disp_type <chr>, iss_plaintiff <chr>
…
