Small Claims: Canadian County 00-19
…
#completeness

The pct_complete column shows that we have 100 percent of expected cases for each year.

2.2 Check for NAs

Detail the NAs and blank items in your data and, if necessary and possible, fill them in.

nas <- sc %>%
  group_by(casenum) %>% 
  filter(all(is.na(iss_plaint) | iss_plaint == ""))

nas 

## # A tibble: 2,133 x 12
## # Groups:   casenum [1,758]
##    court  casenum   casetype file_year file_date  defname       iss_no iss_desc 
##    <chr>  <chr>     <chr>        <int> <date>     <chr>         <chr>  <chr>    
##  1 CANAD SC-2000- SC            2000 NA         MARTIN, JAMES 1      INDEBTED
##  2 CANAD SC-2000- SC            2000 NA         HATTEN, ORLA 1      INDEBTED
##  3 CANAD SC-2000- SC            2000 NA         COLLIS, STEVE 1      INDEBTED
##  4 CANAD SC-2000- SC            2000 NA         COMETSEVAH,  1      INDEBTED
##  5 CANAD SC-2000- SC            2000 NA         DOUGLAS, ARV 1      INDEBTED
##  6 CANAD SC-2000- SC            2000 NA         WATTS, BRAND 1      INDEBTED
##  7 CANAD SC-2000- SC            2000 NA         BAKER, HOMER 1      INDEBTED
##  8 CANAD SC-2000- SC            2000 NA         BAKER, JAY    1      INDEBTED
##  9 CANAD SC-2000- SC            2000 NA         SLEEPER, KEN 1      INDEBTED
## 10 CANAD SC-2000- SC            2000 NA         GUTHRIE, DAR 1      INDEBTED
## #  with 2,123 more rows, and 4 more variables: iss_plaint <chr>,
## #   disp_date <date>, disp <chr>, disp_type <chr>

nas_desc <- sc %>%
  group_by(casenum) %>% 
  filter(all(is.na(iss_desc) | iss_desc == "")) 

nas_desc

## # A tibble: 29 x 12
## # Groups:   casenum [23]
##    court   casenum    casetype file_year file_date  defname      iss_no iss_desc
##    <chr>   <chr>      <chr>        <int> <date>     <chr>        <chr>  <chr>   
##  1 CANADI SC-2000-0 SC            2000 NA         MILES, MARL 1      ""      
##  2 CANADI SC-2000-0 SC            2000 NA         WILEY, MIKE  1      ""      
##  3 CANADI SC-2000-0 SC            2000 NA         MILLER, EDW 1      ""      
##  4 CANADI SC-2000-0 SC            2000 NA         COLLINS, ST 1      ""      
##  5 CANADI SC-2000-0 SC            2000 NA         COLLINS, DA 1      ""      
##  6 CANADI SC-2000-0 SC            2000 NA         PULLEN, ANG 1      ""      
##  7 CANADI SC-2000-0 SC            2000 NA         BERRY, JOE   1      ""      
##  8 CANADI SC-2000-0 SC            2000 NA         HAMILL, MAR 1      ""      
##  9 CANADI SC-2000-0 SC            2000 NA         THOMPSON, J 1      ""      
## 10 CANADI SC-2000-0 SC            2000 NA         VAUGHN, CLA 1      ""      
## #  with 19 more rows, and 4 more variables: iss_plaint <chr>,
## #   disp_date <date>, disp <chr>, disp_type <chr>
…
