Small Claims: Cleveland County 00-19
…
#completeness

The pct_complete column shows that we have nearly 100 percent of expected cases for each year.

2.2 Check for NAs

Detail the NAs and blank items in your data and, if necessary and possible, fill them in.

nas <- sc %>%
  group_by(casenum) %>% 
  filter(all(is.na(iss_plaint) | iss_plaint == ""))

nas 

## # A tibble: 54,490 x 12
## # Groups:   casenum [43,286]
##    court   casenum   casetype file_year file_date  defname   iss_no iss_desc    
##    <chr>   <chr>     <chr>        <int> <date>     <chr>     <chr>  <chr>       
##  1 CLEVEL SC-2000- SC            2000 NA         SHEMPERT 1      INDEBTEDNES
##  2 CLEVEL SC-2000- SC            2000 NA         SHEMPERT 1      INDEBTEDNES
##  3 CLEVEL SC-2000- SC            2000 NA         COX, DAV 1      INDEBTEDNES
##  4 CLEVEL SC-2000- SC            2000 NA         HENSLEY, 1      FORCIBLE EN
##  5 CLEVEL SC-2000- SC            2000 NA         HOWARD,  1      INDEBTEDNES
##  6 CLEVEL SC-2000- SC            2000 NA         HOWARD,  1      INDEBTEDNES
##  7 CLEVEL SC-2000- SC            2000 NA         HARGRAVE 1      INDEBTEDNES
##  8 CLEVEL SC-2000- SC            2000 NA         CROWSON, 1      INDEBTEDNES
##  9 CLEVEL SC-2000- SC            2000 NA         BUTNER,  1      INDEBTEDNES
## 10 CLEVEL SC-2000- SC            2000 NA         CURRY, A 1      INDEBTEDNESS
## #  with 54,480 more rows, and 4 more variables: iss_plaint <chr>,
## #   disp_date <date>, disp <chr>, disp_type <chr>
…
